{\rtf1\ansi\ansicpg1252\cocoartf1265
{\fonttbl\f0\fswiss\fcharset0 Helvetica;}
{\colortbl;\red255\green255\blue255;}
\paperw11900\paperh16840\margl1440\margr1440\vieww17940\viewh15880\viewkind0
\pard\tx566\tx1133\tx1700\tx2267\tx2834\tx3401\tx3968\tx4535\tx5102\tx5669\tx6236\tx6803\pardirnatural

\f0\fs36 \cf0 \{\
    "accounting": [\
        \{\
            "firstName": "John",\
            "lastName": "Doe",\
            "age": 23\
        \},\
        \{\
            "firstName": "Mary",\
            "lastName": "Smith",\
            "age": 32\
        \}\
    ],\
    "sales": [\
        \{\
            "firstName": "Sally",\
            "lastName": "Green",\
            "age": 27\
        \},\
        \{\
            "firstName": "Jim",\
            "lastName": "Galley",\
            "age": 41\
        \}\
    ]\
\}}